^C:\USERS\HOSHI\DOCUMENTS\RT\RT\TMP\CCAMERA.OBJ|C:\USERS\HOSHI\DOCUMENTS\RT\RT\TMP\CIMAGE.OBJ|C:\USERS\HOSHI\DOCUMENTS\RT\RT\TMP\CLIGHT.OBJ|C:\USERS\HOSHI\DOCUMENTS\RT\RT\TMP\COBJECT.OBJ|C:\USERS\HOSHI\DOCUMENTS\RT\RT\TMP\COUTPUT.OBJ|C:\USERS\HOSHI\DOCUMENTS\RT\RT\TMP\CRAY.OBJ|C:\USERS\HOSHI\DOCUMENTS\RT\RT\TMP\CRAYTRACE.OBJ|C:\USERS\HOSHI\DOCUMENTS\RT\RT\TMP\CSCENE.OBJ|C:\USERS\HOSHI\DOCUMENTS\RT\RT\TMP\SOURCE.OBJ
/OUT:"BIN\RT.EXE" /INCREMENTAL /NOLOGO /LIBPATH:C:\USERS\HOSHI\DOCUMENTS\RT\RT\\3RD\GLM /LIBPATH:C:\USERS\HOSHI\DOCUMENTS\RT\RT\\3RD\FREEIMAGE\X32 FREEIMAGE.LIB KERNEL32.LIB USER32.LIB GDI32.LIB WINSPOOL.LIB COMDLG32.LIB ADVAPI32.LIB SHELL32.LIB OLE32.LIB OLEAUT32.LIB UUID.LIB ODBC32.LIB ODBCCP32.LIB /MANIFEST /MANIFESTUAC:"level='asInvoker' uiAccess='false'" /manifest:embed /Debug /PDB:"BIN\RT.PDB" /SUBSYSTEM:CONSOLE /TLBID:1 /DYNAMICBASE /NXCOMPAT /IMPLIB:"BIN\RT.LIB" /MACHINE:X86 TMP\CCAMERA.OBJTMP\CIMAGE.OBJTMP\CLIGHT.OBJTMP\COBJECT.OBJTMP\COUTPUT.OBJTMP\CRAY.OBJTMP\CRAYTRACE.OBJTMP\CSCENE.OBJTMP\SOURCE.OBJ
^C:\USERS\HOSHI\DOCUMENTS\RAYTRACER\RT\RT\TMP\CCAMERA.OBJ|C:\USERS\HOSHI\DOCUMENTS\RAYTRACER\RT\RT\TMP\CIMAGE.OBJ|C:\USERS\HOSHI\DOCUMENTS\RAYTRACER\RT\RT\TMP\CLIGHT.OBJ|C:\USERS\HOSHI\DOCUMENTS\RAYTRACER\RT\RT\TMP\COBJECT.OBJ|C:\USERS\HOSHI\DOCUMENTS\RAYTRACER\RT\RT\TMP\COUTPUT.OBJ|C:\USERS\HOSHI\DOCUMENTS\RAYTRACER\RT\RT\TMP\CRAY.OBJ|C:\USERS\HOSHI\DOCUMENTS\RAYTRACER\RT\RT\TMP\CRAYTRACE.OBJ|C:\USERS\HOSHI\DOCUMENTS\RAYTRACER\RT\RT\TMP\CSCENE.OBJ|C:\USERS\HOSHI\DOCUMENTS\RAYTRACER\RT\RT\TMP\SOURCE.OBJ
/OUT:"BIN\RT.EXE" /INCREMENTAL /NOLOGO /LIBPATH:C:\USERS\HOSHI\DOCUMENTS\RAYTRACER\RT\RT\\3RD\GLM /LIBPATH:C:\USERS\HOSHI\DOCUMENTS\RAYTRACER\RT\RT\\3RD\FREEIMAGE\X32 FREEIMAGE.LIB KERNEL32.LIB USER32.LIB GDI32.LIB WINSPOOL.LIB COMDLG32.LIB ADVAPI32.LIB SHELL32.LIB OLE32.LIB OLEAUT32.LIB UUID.LIB ODBC32.LIB ODBCCP32.LIB /MANIFEST /MANIFESTUAC:"level='asInvoker' uiAccess='false'" /manifest:embed /Debug /PDB:"BIN\RT.PDB" /SUBSYSTEM:CONSOLE /TLBID:1 /DYNAMICBASE /NXCOMPAT /IMPLIB:"BIN\RT.LIB" /MACHINE:X86 TMP\CCAMERA.OBJTMP\CIMAGE.OBJTMP\CLIGHT.OBJTMP\COBJECT.OBJTMP\COUTPUT.OBJTMP\CRAY.OBJTMP\CRAYTRACE.OBJTMP\CSCENE.OBJTMP\SOURCE.OBJ
